{
  "meta": {
    "pagination": {
      "total": 61,
      "per_page": 30,
      "current_page": 2,
      "last_page": 3,
      "next_page_url": "http://mimic.loc/api/mimic/load-responses?page=3",
      "prev_page_url": "http://mimic.loc/api/mimic/load-responses?page=1",
      "has_more_pages": true,
      "first_item": 31,
      "last_item": 60
    }
  },
  "mimics": [
    {
      "mimic": {
        "id": 100,
        "username": "beachdude",
        "profile_picture": "http://mimic.loc/files/hr/female/2.jpg",
        "user_id": 2,
        "mimic_type": "picture",
        "upvote": "123M",
        "file": "xyz.jpg",
        "file_url": "http://mimic.loc/files/user/2/{year}/{month}/xyz.jpg",
        "video_thumb_url": null,
        "aws_file": null,
        "upvoted": 0,
        "i_am_following_you": null,
        "created_at": "{created_at}",
        "responses_count": null,
        "meta": {
          "width": 200,
          "height": 300,
          "thumbnail_width": 200,
          "thumbnail_height": 300
        }
      }
    },
    {
      "mimic": {
        "id": 99,
        "username": "beachdude",
        "profile_picture": "http://mimic.loc/files/hr/female/2.jpg",
        "user_id": 2,
        "mimic_type": "picture",
        "upvote": "123M",
        "file": "xyz.jpg",
        "file_url": "http://mimic.loc/files/user/2/{year}/{month}/xyz.jpg",
        "video_thumb_url": null,
        "aws_file": null,
        "upvoted": 0,
        "i_am_following_you": null,
        "created_at": "{created_at}",
        "responses_count": null,
        "meta": {
          "width": 200,
          "height": 300,
          "thumbnail_width": 200,
          "thumbnail_height": 300
        }
      }
    },
    {
      "mimic": {
        "id": 98,
        "username": "beachdude",
        "profile_picture": "http://mimic.loc/files/hr/female/2.jpg",
        "user_id": 2,
        "mimic_type": "picture",
        "upvote": "123M",
        "file": "xyz.jpg",
        "file_url": "http://mimic.loc/files/user/2/{year}/{month}/xyz.jpg",
        "video_thumb_url": null,
        "aws_file": null,
        "upvoted": 0,
        "i_am_following_you": null,
        "created_at": "{created_at}",
        "responses_count": null,
        "meta": {
          "width": 200,
          "height": 300,
          "thumbnail_width": 200,
          "thumbnail_height": 300
        }
      }
    },
    {
      "mimic": {
        "id": 97,
        "username": "beachdude",
        "profile_picture": "http://mimic.loc/files/hr/female/2.jpg",
        "user_id": 2,
        "mimic_type": "picture",
        "upvote": "123M",
        "file": "xyz.jpg",
        "file_url": "http://mimic.loc/files/user/2/{year}/{month}/xyz.jpg",
        "video_thumb_url": null,
        "aws_file": null,
        "upvoted": 0,
        "i_am_following_you": null,
        "created_at": "{created_at}",
        "responses_count": null,
        "meta": {
          "width": 200,
          "height": 300,
          "thumbnail_width": 200,
          "thumbnail_height": 300
        }
      }
    },
    {
      "mimic": {
        "id": 96,
        "username": "beachdude",
        "profile_picture": "http://mimic.loc/files/hr/female/2.jpg",
        "user_id": 2,
        "mimic_type": "picture",
        "upvote": "123M",
        "file": "xyz.jpg",
        "file_url": "http://mimic.loc/files/user/2/{year}/{month}/xyz.jpg",
        "video_thumb_url": null,
        "aws_file": null,
        "upvoted": 0,
        "i_am_following_you": null,
        "created_at": "{created_at}",
        "responses_count": null,
        "meta": {
          "width": 200,
          "height": 300,
          "thumbnail_width": 200,
          "thumbnail_height": 300
        }
      }
    },
    {
      "mimic": {
        "id": 95,
        "username": "beachdude",
        "profile_picture": "http://mimic.loc/files/hr/female/2.jpg",
        "user_id": 2,
        "mimic_type": "picture",
        "upvote": "123M",
        "file": "xyz.jpg",
        "file_url": "http://mimic.loc/files/user/2/{year}/{month}/xyz.jpg",
        "video_thumb_url": null,
        "aws_file": null,
        "upvoted": 0,
        "i_am_following_you": null,
        "created_at": "{created_at}",
        "responses_count": null,
        "meta": {
          "width": 200,
          "height": 300,
          "thumbnail_width": 200,
          "thumbnail_height": 300
        }
      }
    },
    {
      "mimic": {
        "id": 94,
        "username": "beachdude",
        "profile_picture": "http://mimic.loc/files/hr/female/2.jpg",
        "user_id": 2,
        "mimic_type": "picture",
        "upvote": "123M",
        "file": "xyz.jpg",
        "file_url": "http://mimic.loc/files/user/2/{year}/{month}/xyz.jpg",
        "video_thumb_url": null,
        "aws_file": null,
        "upvoted": 0,
        "i_am_following_you": null,
        "created_at": "{created_at}",
        "responses_count": null,
        "meta": {
          "width": 200,
          "height": 300,
          "thumbnail_width": 200,
          "thumbnail_height": 300
        }
      }
    },
    {
      "mimic": {
        "id": 93,
        "username": "beachdude",
        "profile_picture": "http://mimic.loc/files/hr/female/2.jpg",
        "user_id": 2,
        "mimic_type": "picture",
        "upvote": "123M",
        "file": "xyz.jpg",
        "file_url": "http://mimic.loc/files/user/2/{year}/{month}/xyz.jpg",
        "video_thumb_url": null,
        "aws_file": null,
        "upvoted": 0,
        "i_am_following_you": null,
        "created_at": "{created_at}",
        "responses_count": null,
        "meta": {
          "width": 200,
          "height": 300,
          "thumbnail_width": 200,
          "thumbnail_height": 300
        }
      }
    },
    {
      "mimic": {
        "id": 92,
        "username": "beachdude",
        "profile_picture": "http://mimic.loc/files/hr/female/2.jpg",
        "user_id": 2,
        "mimic_type": "picture",
        "upvote": "123M",
        "file": "xyz.jpg",
        "file_url": "http://mimic.loc/files/user/2/{year}/{month}/xyz.jpg",
        "video_thumb_url": null,
        "aws_file": null,
        "upvoted": 0,
        "i_am_following_you": null,
        "created_at": "{created_at}",
        "responses_count": null,
        "meta": {
          "width": 200,
          "height": 300,
          "thumbnail_width": 200,
          "thumbnail_height": 300
        }
      }
    },
    {
      "mimic": {
        "id": 91,
        "username": "beachdude",
        "profile_picture": "http://mimic.loc/files/hr/female/2.jpg",
        "user_id": 2,
        "mimic_type": "picture",
        "upvote": "123M",
        "file": "xyz.jpg",
        "file_url": "http://mimic.loc/files/user/2/{year}/{month}/xyz.jpg",
        "video_thumb_url": null,
        "aws_file": null,
        "upvoted": 0,
        "i_am_following_you": null,
        "created_at": "{created_at}",
        "responses_count": null,
        "meta": {
          "width": 200,
          "height": 300,
          "thumbnail_width": 200,
          "thumbnail_height": 300
        }
      }
    },
    {
      "mimic": {
        "id": 90,
        "username": "beachdude",
        "profile_picture": "http://mimic.loc/files/hr/female/2.jpg",
        "user_id": 2,
        "mimic_type": "picture",
        "upvote": "123M",
        "file": "xyz.jpg",
        "file_url": "http://mimic.loc/files/user/2/{year}/{month}/xyz.jpg",
        "video_thumb_url": null,
        "aws_file": null,
        "upvoted": 0,
        "i_am_following_you": null,
        "created_at": "{created_at}",
        "responses_count": null,
        "meta": {
          "width": 200,
          "height": 300,
          "thumbnail_width": 200,
          "thumbnail_height": 300
        }
      }
    },
    {
      "mimic": {
        "id": 89,
        "username": "beachdude",
        "profile_picture": "http://mimic.loc/files/hr/female/2.jpg",
        "user_id": 2,
        "mimic_type": "picture",
        "upvote": "123M",
        "file": "xyz.jpg",
        "file_url": "http://mimic.loc/files/user/2/{year}/{month}/xyz.jpg",
        "video_thumb_url": null,
        "aws_file": null,
        "upvoted": 0,
        "i_am_following_you": null,
        "created_at": "{created_at}",
        "responses_count": null,
        "meta": {
          "width": 200,
          "height": 300,
          "thumbnail_width": 200,
          "thumbnail_height": 300
        }
      }
    },
    {
      "mimic": {
        "id": 88,
        "username": "beachdude",
        "profile_picture": "http://mimic.loc/files/hr/female/2.jpg",
        "user_id": 2,
        "mimic_type": "picture",
        "upvote": "123M",
        "file": "xyz.jpg",
        "file_url": "http://mimic.loc/files/user/2/{year}/{month}/xyz.jpg",
        "video_thumb_url": null,
        "aws_file": null,
        "upvoted": 0,
        "i_am_following_you": null,
        "created_at": "{created_at}",
        "responses_count": null,
        "meta": {
          "width": 200,
          "height": 300,
          "thumbnail_width": 200,
          "thumbnail_height": 300
        }
      }
    },
    {
      "mimic": {
        "id": 87,
        "username": "beachdude",
        "profile_picture": "http://mimic.loc/files/hr/female/2.jpg",
        "user_id": 2,
        "mimic_type": "picture",
        "upvote": "123M",
        "file": "xyz.jpg",
        "file_url": "http://mimic.loc/files/user/2/{year}/{month}/xyz.jpg",
        "video_thumb_url": null,
        "aws_file": null,
        "upvoted": 0,
        "i_am_following_you": null,
        "created_at": "{created_at}",
        "responses_count": null,
        "meta": {
          "width": 200,
          "height": 300,
          "thumbnail_width": 200,
          "thumbnail_height": 300
        }
      }
    },
    {
      "mimic": {
        "id": 86,
        "username": "beachdude",
        "profile_picture": "http://mimic.loc/files/hr/female/2.jpg",
        "user_id": 2,
        "mimic_type": "picture",
        "upvote": "123M",
        "file": "xyz.jpg",
        "file_url": "http://mimic.loc/files/user/2/{year}/{month}/xyz.jpg",
        "video_thumb_url": null,
        "aws_file": null,
        "upvoted": 0,
        "i_am_following_you": null,
        "created_at": "{created_at}",
        "responses_count": null,
        "meta": {
          "width": 200,
          "height": 300,
          "thumbnail_width": 200,
          "thumbnail_height": 300
        }
      }
    },
    {
      "mimic": {
        "id": 85,
        "username": "beachdude",
        "profile_picture": "http://mimic.loc/files/hr/female/2.jpg",
        "user_id": 2,
        "mimic_type": "picture",
        "upvote": "123M",
        "file": "xyz.jpg",
        "file_url": "http://mimic.loc/files/user/2/{year}/{month}/xyz.jpg",
        "video_thumb_url": null,
        "aws_file": null,
        "upvoted": 0,
        "i_am_following_you": null,
        "created_at": "{created_at}",
        "responses_count": null,
        "meta": {
          "width": 200,
          "height": 300,
          "thumbnail_width": 200,
          "thumbnail_height": 300
        }
      }
    },
    {
      "mimic": {
        "id": 84,
        "username": "beachdude",
        "profile_picture": "http://mimic.loc/files/hr/female/2.jpg",
        "user_id": 2,
        "mimic_type": "picture",
        "upvote": "123M",
        "file": "xyz.jpg",
        "file_url": "http://mimic.loc/files/user/2/{year}/{month}/xyz.jpg",
        "video_thumb_url": null,
        "aws_file": null,
        "upvoted": 0,
        "i_am_following_you": null,
        "created_at": "{created_at}",
        "responses_count": null,
        "meta": {
          "width": 200,
          "height": 300,
          "thumbnail_width": 200,
          "thumbnail_height": 300
        }
      }
    },
    {
      "mimic": {
        "id": 83,
        "username": "beachdude",
        "profile_picture": "http://mimic.loc/files/hr/female/2.jpg",
        "user_id": 2,
        "mimic_type": "picture",
        "upvote": "123M",
        "file": "xyz.jpg",
        "file_url": "http://mimic.loc/files/user/2/{year}/{month}/xyz.jpg",
        "video_thumb_url": null,
        "aws_file": null,
        "upvoted": 0,
        "i_am_following_you": null,
        "created_at": "{created_at}",
        "responses_count": null,
        "meta": {
          "width": 200,
          "height": 300,
          "thumbnail_width": 200,
          "thumbnail_height": 300
        }
      }
    },
    {
      "mimic": {
        "id": 82,
        "username": "beachdude",
        "profile_picture": "http://mimic.loc/files/hr/female/2.jpg",
        "user_id": 2,
        "mimic_type": "picture",
        "upvote": "123M",
        "file": "xyz.jpg",
        "file_url": "http://mimic.loc/files/user/2/{year}/{month}/xyz.jpg",
        "video_thumb_url": null,
        "aws_file": null,
        "upvoted": 0,
        "i_am_following_you": null,
        "created_at": "{created_at}",
        "responses_count": null,
        "meta": {
          "width": 200,
          "height": 300,
          "thumbnail_width": 200,
          "thumbnail_height": 300
        }
      }
    },
    {
      "mimic": {
        "id": 81,
        "username": "beachdude",
        "profile_picture": "http://mimic.loc/files/hr/female/2.jpg",
        "user_id": 2,
        "mimic_type": "picture",
        "upvote": "123M",
        "file": "xyz.jpg",
        "file_url": "http://mimic.loc/files/user/2/{year}/{month}/xyz.jpg",
        "video_thumb_url": null,
        "aws_file": null,
        "upvoted": 0,
        "i_am_following_you": null,
        "created_at": "{created_at}",
        "responses_count": null,
        "meta": {
          "width": 200,
          "height": 300,
          "thumbnail_width": 200,
          "thumbnail_height": 300
        }
      }
    },
    {
      "mimic": {
        "id": 11,
        "username": "hogwartsthestral",
        "profile_picture": "http://mimic.loc/files/hr/female/12.jpg",
        "user_id": 12,
        "mimic_type": "video",
        "upvote": "123M",
        "file": "12-11.mp4",
        "file_url": "http://mimic.loc/files/user/12/1970/01/12-11.mp4",
        "video_thumb_url": "http://mimic.loc/files/user/12/1970/01/12-11.jpg",
        "aws_file": null,
        "upvoted": 0,
        "i_am_following_you": null,
        "created_at": 43200,
        "responses_count": null,
        "meta": {
          "width": 600,
          "height": 900,
          "thumbnail_width": 200,
          "thumbnail_height": 300
        }
      }
    },
    {
      "mimic": {
        "id": 10,
        "username": "EmeraldDream",
        "profile_picture": "http://mimic.loc/files/hr/female/11.jpg",
        "user_id": 11,
        "mimic_type": "video",
        "upvote": "123M",
        "file": "11-10.mp4",
        "file_url": "http://mimic.loc/files/user/11/1970/01/11-10.mp4",
        "video_thumb_url": "http://mimic.loc/files/user/11/1970/01/11-10.jpg",
        "aws_file": null,
        "upvoted": 0,
        "i_am_following_you": null,
        "created_at": 43200,
        "responses_count": null,
        "meta": {
          "width": 600,
          "height": 900,
          "thumbnail_width": 200,
          "thumbnail_height": 300
        }
      }
    },
    {
      "mimic": {
        "id": 9,
        "username": "DriveAlive",
        "profile_picture": "http://mimic.loc/files/hr/female/10.jpg",
        "user_id": 10,
        "mimic_type": "picture",
        "upvote": "123M",
        "file": "10-9.jpg",
        "file_url": "http://mimic.loc/files/user/10/1970/01/10-9.jpg",
        "video_thumb_url": null,
        "aws_file": null,
        "upvoted": 0,
        "i_am_following_you": null,
        "created_at": 43200,
        "responses_count": null,
        "meta": {
          "width": 600,
          "height": 900,
          "thumbnail_width": 200,
          "thumbnail_height": 300
        }
      }
    },
    {
      "mimic": {
        "id": 8,
        "username": "Desynchronized",
        "profile_picture": "http://mimic.loc/files/hr/female/9.jpg",
        "user_id": 9,
        "mimic_type": "picture",
        "upvote": "123M",
        "file": "9-8.jpg",
        "file_url": "http://mimic.loc/files/user/9/1970/01/9-8.jpg",
        "video_thumb_url": null,
        "aws_file": null,
        "upvoted": 0,
        "i_am_following_you": null,
        "created_at": 43200,
        "responses_count": null,
        "meta": {
          "width": 600,
          "height": 900,
          "thumbnail_width": 200,
          "thumbnail_height": 300
        }
      }
    },
    {
      "mimic": {
        "id": 7,
        "username": "Desdemona",
        "profile_picture": "http://mimic.loc/files/hr/female/8.jpg",
        "user_id": 8,
        "mimic_type": "video",
        "upvote": "123M",
        "file": "8-7.mp4",
        "file_url": "http://mimic.loc/files/user/8/1970/01/8-7.mp4",
        "video_thumb_url": "http://mimic.loc/files/user/8/1970/01/8-7.jpg",
        "aws_file": null,
        "upvoted": 0,
        "i_am_following_you": null,
        "created_at": 43200,
        "responses_count": null,
        "meta": {
          "width": 600,
          "height": 900,
          "thumbnail_width": 200,
          "thumbnail_height": 300
        }
      }
    },
    {
      "mimic": {
        "id": 6,
        "username": "DerpyGirl",
        "profile_picture": "http://mimic.loc/files/hr/female/7.jpg",
        "user_id": 7,
        "mimic_type": "picture",
        "upvote": "123M",
        "file": "7-6.jpg",
        "file_url": "http://mimic.loc/files/user/7/1970/01/7-6.jpg",
        "video_thumb_url": null,
        "aws_file": null,
        "upvoted": 0,
        "i_am_following_you": null,
        "created_at": 43200,
        "responses_count": null,
        "meta": {
          "width": 600,
          "height": 900,
          "thumbnail_width": 200,
          "thumbnail_height": 300
        }
      }
    },
    {
      "mimic": {
        "id": 5,
        "username": "deeptt_tacos",
        "profile_picture": "http://mimic.loc/files/hr/female/6.jpg",
        "user_id": 6,
        "mimic_type": "picture",
        "upvote": "123M",
        "file": "6-5.jpg",
        "file_url": "http://mimic.loc/files/user/6/1970/01/6-5.jpg",
        "video_thumb_url": null,
        "aws_file": null,
        "upvoted": 0,
        "i_am_following_you": null,
        "created_at": 43200,
        "responses_count": null,
        "meta": {
          "width": 600,
          "height": 900,
          "thumbnail_width": 200,
          "thumbnail_height": 300
        }
      }
    },
    {
      "mimic": {
        "id": 4,
        "username": "Datguy1",
        "profile_picture": "http://mimic.loc/files/hr/female/5.jpg",
        "user_id": 5,
        "mimic_type": "video",
        "upvote": "123M",
        "file": "5-4.mp4",
        "file_url": "http://mimic.loc/files/user/5/1970/01/5-4.mp4",
        "video_thumb_url": "http://mimic.loc/files/user/5/1970/01/5-4.jpg",
        "aws_file": null,
        "upvoted": 0,
        "i_am_following_you": null,
        "created_at": 43200,
        "responses_count": null,
        "meta": {
          "width": 600,
          "height": 900,
          "thumbnail_width": 200,
          "thumbnail_height": 300
        }
      }
    },
    {
      "mimic": {
        "id": 3,
        "username": "Cognizant",
        "profile_picture": "http://mimic.loc/files/hr/female/4.jpg",
        "user_id": 4,
        "mimic_type": "video",
        "upvote": "123M",
        "file": "4-3.mp4",
        "file_url": "http://mimic.loc/files/user/4/1970/01/4-3.mp4",
        "video_thumb_url": "http://mimic.loc/files/user/4/1970/01/4-3.jpg",
        "aws_file": null,
        "upvoted": 0,
        "i_am_following_you": null,
        "created_at": 43200,
        "responses_count": null,
        "meta": {
          "width": 600,
          "height": 900,
          "thumbnail_width": 200,
          "thumbnail_height": 300
        }
      }
    },
    {
      "mimic": {
        "id": 2,
        "username": "Chrisburke04",
        "profile_picture": "http://mimic.loc/files/hr/female/3.jpg",
        "user_id": 3,
        "mimic_type": "video",
        "upvote": "123M",
        "file": "3-2.mp4",
        "file_url": "http://mimic.loc/files/user/3/1970/01/3-2.mp4",
        "video_thumb_url": "http://mimic.loc/files/user/3/1970/01/3-2.jpg",
        "aws_file": null,
        "upvoted": 0,
        "i_am_following_you": null,
        "created_at": 43200,
        "responses_count": null,
        "meta": {
          "width": 600,
          "height": 900,
          "thumbnail_width": 200,
          "thumbnail_height": 300
        }
      }
    }
  ]
}
